module jerry

go 1.13

require (
	github.com/DataDog/zstd v1.4.4 // indirect
	github.com/golang/snappy v0.0.1 // indirect
	github.com/jinzhu/gorm v1.9.11
	github.com/joho/godotenv v1.3.0
	github.com/kr/pretty v0.2.0 // indirect
	github.com/labstack/echo/v4 v4.1.11
	github.com/pkg/errors v0.8.1 // indirect
	github.com/tidwall/pretty v1.0.0 // indirect
	github.com/xdg/scram v0.0.0-20180814205039-7eeb5667e42c // indirect
	github.com/xdg/stringprep v1.0.0 // indirect
	go.mongodb.org/mongo-driver v1.2.0
	golang.org/x/crypto v0.0.0-20191219195013-becbf705a915 // indirect
	golang.org/x/sync v0.0.0-20190911185100-cd5d95a43a6e // indirect
)
